%YAML 1.1
%TAG !u! tag:unity3d.com,2011:
--- !u!114 &11400000
MonoBehaviour:
  m_ObjectHideFlags: 0
  m_CorrespondingSourceObject: {fileID: 0}
  m_PrefabInstance: {fileID: 0}
  m_PrefabAsset: {fileID: 0}
  m_GameObject: {fileID: 0}
  m_Enabled: 1
  m_EditorHideFlags: 0
  m_Script: {fileID: 11500000, guid: 76a2c5b1c20cdf14f99dad579d4c5b0d, type: 3}
  m_Name: Living Wood
  m_EditorClassIdentifier: 
  name: Living Wood
  frontSprite: {fileID: -5034061168752090764, guid: dad599e4e4896f44b90625c3673d45eb, type: 3}
  backSprite: {fileID: -451413936476517383, guid: dad599e4e4896f44b90625c3673d45eb, type: 3}
  maxHP: 20
  attack: 3
  defense: 2
  maxTP: 3
  learnableSkills:
  - baseSkill: {fileID: 11400000, guid: 38b27765950731f4e91bd96ad1beeed7, type: 2}
    level: 1
  - baseSkill: {fileID: 11400000, guid: 6c791c1e73ef78841ab603a9895fa4ef, type: 2}
    level: 2
